%YAML 1.1
%TAG !u! tag:unity3d.com,2011:
--- !u!74 &7400000
AnimationClip:
  m_ObjectHideFlags: 0
  m_PrefabParentObject: {fileID: 0}
  m_PrefabInternal: {fileID: 0}
  m_Name: SelectedLevelAnimation
  serializedVersion: 6
  m_Legacy: 0
  m_Compressed: 0
  m_UseHighQualityCurve: 1
  m_RotationCurves: []
  m_CompressedRotationCurves: []
  m_PositionCurves: []
  m_ScaleCurves:
  - curve:
      serializedVersion: 2
      m_Curve:
      - time: 0
        value: {x: 2.5, y: 2.5, z: 2.5}
        inSlope: {x: -.899999857, y: -.899999857, z: -.899999857}
        outSlope: {x: -.899999857, y: -.899999857, z: -.899999857}
        tangentMode: 0
      - time: .333333343
        value: {x: 2.20000005, y: 2.20000005, z: 2.20000005}
        inSlope: {x: 0, y: 0, z: 0}
        outSlope: {x: 0, y: 0, z: 0}
        tangentMode: 0
      - time: .666666687
        value: {x: 2.5, y: 2.5, z: 2.5}
        inSlope: {x: .899999857, y: .899999857, z: .899999857}
        outSlope: {x: .899999857, y: .899999857, z: .899999857}
        tangentMode: 0
      m_PreInfinity: 2
      m_PostInfinity: 2
    path: 
  m_FloatCurves: []
  m_PPtrCurves: []
  m_SampleRate: 60
  m_WrapMode: 0
  m_Bounds:
    m_Center: {x: 0, y: 0, z: 0}
    m_Extent: {x: 0, y: 0, z: 0}
  m_ClipBindingConstant:
    genericBindings:
    - path: 0
      attribute: 3
      script: {fileID: 0}
      classID: 4
      customType: 0
      isPPtrCurve: 0
    pptrCurveMapping: []
  m_AnimationClipSettings:
    serializedVersion: 2
    m_StartTime: 0
    m_StopTime: .666666687
    m_OrientationOffsetY: 0
    m_Level: 0
    m_CycleOffset: 0
    m_LoopTime: 1
    m_LoopBlend: 0
    m_LoopBlendOrientation: 0
    m_LoopBlendPositionY: 0
    m_LoopBlendPositionXZ: 0
    m_KeepOriginalOrientation: 0
    m_KeepOriginalPositionY: 1
    m_KeepOriginalPositionXZ: 0
    m_HeightFromFeet: 0
    m_Mirror: 0
  m_EditorCurves:
  - curve:
      serializedVersion: 2
      m_Curve:
      - time: 0
        value: 2.5
        inSlope: -.899999857
        outSlope: -.899999857
        tangentMode: 10
      - time: .333333343
        value: 2.20000005
        inSlope: 0
        outSlope: 0
        tangentMode: 10
      - time: .666666687
        value: 2.5
        inSlope: .899999857
        outSlope: .899999857
        tangentMode: 10
      m_PreInfinity: 2
      m_PostInfinity: 2
    attribute: m_LocalScale.x
    path: 
    classID: 4
    script: {fileID: 0}
  - curve:
      serializedVersion: 2
      m_Curve:
      - time: 0
        value: 2.5
        inSlope: -.899999857
        outSlope: -.899999857
        tangentMode: 10
      - time: .333333343
        value: 2.20000005
        inSlope: 0
        outSlope: 0
        tangentMode: 10
      - time: .666666687
        value: 2.5
        inSlope: .899999857
        outSlope: .899999857
        tangentMode: 10
      m_PreInfinity: 2
      m_PostInfinity: 2
    attribute: m_LocalScale.y
    path: 
    classID: 4
    script: {fileID: 0}
  - curve:
      serializedVersion: 2
      m_Curve:
      - time: 0
        value: 2.5
        inSlope: -.899999857
        outSlope: -.899999857
        tangentMode: 10
      - time: .333333343
        value: 2.20000005
        inSlope: 0
        outSlope: 0
        tangentMode: 10
      - time: .666666687
        value: 2.5
        inSlope: .899999857
        outSlope: .899999857
        tangentMode: 10
      m_PreInfinity: 2
      m_PostInfinity: 2
    attribute: m_LocalScale.z
    path: 
    classID: 4
    script: {fileID: 0}
  m_EulerEditorCurves: []
  m_HasGenericRootTransform: 0
  m_HasMotionFloatCurves: 0
  m_GenerateMotionCurves: 0
  m_Events: []
